<svg width="53" height="52" viewBox="0 0 53 52" fill="none" xmlns="http://www.w3.org/2000/svg">
<path d="M40.0909 51.1867H12.8182C11.8182 51.1867 11 50.3591 11 49.3475C11 49.1636 11 48.9797 11.0909 48.7958L14.7273 37.761C15 37.0253 15.6364 36.4736 16.4545 36.4736H36.4545C37.2727 36.4736 37.9091 37.0253 38.1818 37.761L41.8182 48.7958C41.9091 48.9797 41.9091 49.1636 41.9091 49.3475C41.9091 50.3591 41.0909 51.1867 40.0909 51.1867ZM16.4545 38.3127L12.8182 49.3475H40.0909L36.4545 38.3127H16.4545Z" fill="white" stroke="white" stroke-width="0.3"/>
<path d="M23.3098 25.857L19.9004 37.1107L21.6388 37.6496L25.0482 26.3958L23.3098 25.857Z" fill="white" stroke="white" stroke-width="0.3"/>
<path d="M29.6701 25.8751L27.9277 26.4005L31.2522 37.6802L32.9946 37.1547L29.6701 25.8751Z" fill="white" stroke="white" stroke-width="0.3"/>
<path d="M29.1813 40.1519H14.5449V41.9905H29.1813V40.1519Z" fill="white" stroke="white" stroke-width="0.3"/>
<path d="M32.8182 40.1519H31V41.9905H32.8182V40.1519Z" fill="white" stroke="white" stroke-width="0.3"/>
<path d="M38.364 40.1519H34.6367V41.9905H38.364V40.1519Z" fill="white" stroke="white" stroke-width="0.3"/>
<path d="M26.4549 27.2778C19.9094 27.2778 14.6367 21.9443 14.6367 15.3234V2.44949C14.6367 1.43796 15.4549 0.610352 16.4549 0.610352H36.4549C37.4549 0.610352 38.2731 1.43796 38.2731 2.44949V15.3234C38.2731 22.0363 33.0913 27.2778 26.4549 27.2778ZM16.4549 2.44949V15.3234C16.4549 21.0248 20.8185 25.4387 26.4549 25.4387C32.0913 25.4387 36.4549 21.0248 36.4549 15.3234V2.44949H16.4549Z" fill="white" stroke="white" stroke-width="0.3"/>
<path d="M28.2722 4.28772H15.5449V6.12637H28.2722V4.28772Z" fill="white" stroke="white" stroke-width="0.3"/>
<path d="M31.91 4.28772H30.0918V6.12637H31.91V4.28772Z" fill="white" stroke="white" stroke-width="0.3"/>
<path d="M29.8191 22.8624L29.0918 21.2076C31.0009 20.2882 32.3645 18.5415 32.7282 16.5189L34.5463 16.7947C34.0009 19.4608 32.2736 21.7592 29.8191 22.8624Z" fill="white" stroke="white" stroke-width="0.3"/>
<path d="M26.4538 23.5991C25.8175 23.5991 25.272 23.5072 24.7266 23.4152L25.0902 21.5765C25.7266 21.6685 26.3629 21.7604 26.9993 21.6685L27.1811 23.5072C26.9084 23.5991 26.6357 23.5991 26.4538 23.5991Z" fill="white" stroke="white" stroke-width="0.3"/>
<path d="M15.0914 18.0813C14.2733 17.1617 12.4551 16.1502 10.6369 15.2306C7.6369 13.7593 6.45508 12.196 6.45508 9.80514C6.45508 5.75903 9.36417 4.28772 11.9096 4.28772C14.4551 4.28772 16.4551 6.31077 16.4551 8.88557H14.6369C14.6369 7.3223 13.4551 6.12686 11.9096 6.12686C10.8187 6.12686 8.27326 6.49469 8.27326 9.80514C8.27326 11.1845 8.81872 12.288 11.3642 13.5754C13.6369 14.7708 15.3642 15.6904 16.3642 16.7939L15.0914 18.0813Z" fill="white" stroke="white" stroke-width="0.3"/>
<path d="M37.8178 18.0813L36.4542 16.7939C37.4542 15.6904 39.1815 14.7708 41.4542 13.5754C44.0906 12.288 44.5451 11.1845 44.5451 9.80514C44.5451 6.49469 41.9996 6.12686 40.9087 6.12686C39.3633 6.12686 38.1815 7.3223 38.1815 8.88557H36.3633C36.3633 6.31077 38.3633 4.28772 40.9087 4.28772C43.4542 4.28772 46.3633 5.75903 46.3633 9.80514C46.3633 12.196 45.1815 13.7593 42.1815 15.2306C40.4542 16.1502 38.636 17.1617 37.8178 18.0813Z" fill="white" stroke="white" stroke-width="0.3"/>
<path d="M8.27326 19.9213H6.45508V24.518H8.27326V19.9213Z" fill="white" stroke="white" stroke-width="0.3"/>
<path d="M8.27326 28.1974H6.45508V32.7941H8.27326V28.1974Z" fill="white" stroke="white" stroke-width="0.3"/>
<path d="M13.7271 25.4387H9.18164V27.2774H13.7271V25.4387Z" fill="white" stroke="white" stroke-width="0.3"/>
<path d="M5.54546 25.4387H1V27.2774H5.54546V25.4387Z" fill="white" stroke="white" stroke-width="0.3"/>
<path d="M46.4549 27.2778H44.6367V31.8745H46.4549V27.2778Z" fill="white" stroke="white" stroke-width="0.3"/>
<path d="M46.4549 35.554H44.6367V40.1507H46.4549V35.554Z" fill="white" stroke="white" stroke-width="0.3"/>
<path d="M51.9087 32.7953H47.3633V34.634H51.9087V32.7953Z" fill="white" stroke="white" stroke-width="0.3"/>
<path d="M43.7271 32.7953H39.1816V34.634H43.7271V32.7953Z" fill="white" stroke="white" stroke-width="0.3"/>
</svg>
