<svg width="73" height="70" viewBox="0 0 73 70" fill="none" xmlns="http://www.w3.org/2000/svg">
<path d="M2.44755 53.8462H0V56.2937H2.44755V53.8462Z" fill="inherit"/>
<path d="M2.44755 48.9512H0V51.3987H2.44755V48.9512Z" fill="inherit"/>
<path d="M2.44755 44.0559H0V46.5035H2.44755V44.0559Z" fill="inherit"/>
<path d="M2.44755 39.1609H0V41.6084H2.44755V39.1609Z" fill="inherit"/>
<path d="M2.44755 34.2656H0V36.7132H2.44755V34.2656Z" fill="inherit"/>
<path d="M2.44755 29.3706H0V31.8182H2.44755V29.3706Z" fill="inherit"/>
<path d="M2.44755 24.4756H0V26.9231H2.44755V24.4756Z" fill="inherit"/>
<path d="M2.44755 19.5803H0V22.0279H2.44755V19.5803Z" fill="inherit"/>
<path d="M2.44755 14.6853H0V17.1329H2.44755V14.6853Z" fill="inherit"/>
<path d="M2.44755 9.79028H0V12.2378H2.44755V9.79028Z" fill="inherit"/>
<path d="M2.44755 4.89502H0V7.34257H2.44755V4.89502Z" fill="inherit"/>
<path d="M2.44755 0H0V2.44755H2.44755V0Z" fill="inherit"/>
<path d="M7.34208 0H4.89453V2.44755H7.34208V0Z" fill="inherit"/>
<path d="M12.2386 0H9.79102V2.44755H12.2386V0Z" fill="inherit"/>
<path d="M17.1331 0H14.6855V2.44755H17.1331V0Z" fill="inherit"/>
<path d="M22.0276 0H19.5801V2.44755H22.0276V0Z" fill="inherit"/>
<path d="M26.9222 0H24.4746V2.44755H26.9222V0Z" fill="inherit"/>
<path d="M31.8186 0H29.3711V2.44755H31.8186V0Z" fill="inherit"/>
<path d="M36.7132 0H34.2656V2.44755H36.7132V0Z" fill="inherit"/>
<path d="M41.6077 0H39.1602V2.44755H41.6077V0Z" fill="inherit"/>
<path d="M19.5798 24.4754C16.1532 24.4754 13.4609 21.9055 13.4609 18.6013V15.5419C13.4609 12.36 16.1532 9.66772 19.5798 9.66772C23.0064 9.66772 25.6987 12.2377 25.6987 15.5419V18.6013C25.6987 21.9055 23.0064 24.4754 19.5798 24.4754ZM19.5798 12.2377C17.4994 12.2377 15.9085 13.7062 15.9085 15.6642V18.7237C15.9085 20.5593 17.4994 22.1502 19.5798 22.1502C21.6602 22.1502 23.2511 20.6817 23.2511 18.7237V15.6642C23.2511 13.7062 21.6602 12.2377 19.5798 12.2377Z" fill="inherit"/>
<path d="M28.1465 35.4895H25.699C25.699 32.063 23.0067 29.3706 19.5801 29.3706C16.1535 29.3706 13.4612 32.063 13.4612 35.4895H11.0137C11.0137 30.7168 14.8074 26.9231 19.5801 26.9231C24.3528 26.9231 28.1465 30.7168 28.1465 35.4895Z" fill="inherit"/>
<path d="M31.8176 61.1887H7.34208C5.99593 61.1887 4.89453 60.0873 4.89453 58.7412V7.34257C4.89453 5.99642 5.99593 4.89502 7.34208 4.89502H51.398C52.7442 4.89502 53.8456 5.99642 53.8456 7.34257V28.1468H51.398V7.34257H7.34208V58.7412H31.8176V61.1887Z" fill="inherit"/>
<path d="M41.6089 13.4614H29.3711V15.909H41.6089V13.4614Z" fill="inherit"/>
<path d="M44.0564 18.3567H29.3711V20.8042H44.0564V18.3567Z" fill="inherit"/>
<path d="M48.9515 18.3567H46.5039V20.8042H48.9515V18.3567Z" fill="inherit"/>
<path d="M29.37 40.3845H13.4609V42.8321H29.37V40.3845Z" fill="inherit"/>
<path d="M22.0274 45.2798H13.4609V47.7273H22.0274V45.2798Z" fill="inherit"/>
<path d="M26.9222 45.2798H24.4746V47.7273H26.9222V45.2798Z" fill="inherit"/>
<path d="M48.9512 64.8602C39.5281 64.8602 31.8184 57.1504 31.8184 47.7273C31.8184 38.3043 39.5281 30.5945 48.9512 30.5945C58.3743 30.5945 66.0841 38.3043 66.0841 47.7273C66.0841 49.6854 65.8393 51.0315 65.3498 52.7448L63.0247 52.0106C63.5142 50.6644 63.6365 49.4406 63.6365 47.8497C63.6365 39.7728 57.0281 33.1644 48.9512 33.1644C40.8743 33.1644 34.2659 39.7728 34.2659 47.8497C34.2659 55.9266 40.8743 62.535 48.9512 62.535C52.6226 62.535 56.1715 61.1889 58.8638 58.619L60.5771 60.4546C57.3953 63.2693 53.2344 64.8602 48.9512 64.8602Z" fill="inherit"/>
<path d="M62.7803 57.8846L60.8223 56.4161C61.1894 55.9266 61.5565 55.3147 61.9237 54.8252L64.1265 56.049C63.6369 56.6609 63.1474 57.2727 62.7803 57.8846Z" fill="inherit"/>
<path d="M55.6815 69.9999L54.9473 67.6747C55.8039 67.4299 56.0487 67.3076 56.9053 66.9404L57.8843 69.1432C56.9053 69.6327 56.5382 69.7551 55.6815 69.9999Z" fill="inherit"/>
<path d="M60.8214 67.6748L59.5977 65.5944C65.8389 61.8007 69.755 54.9476 69.755 47.7273H72.2026C72.2026 55.8042 67.9193 63.514 60.8214 67.6748Z" fill="inherit"/>
<path d="M53.5715 41.3551L52.2734 42.6531L54.0042 44.3837L55.3022 43.0857L53.5715 41.3551Z" fill="inherit"/>
<path d="M47.7278 58.007L38.6719 48.951L44.0565 43.5664L47.7278 47.2377L50.053 44.9126L51.7663 46.6258L47.7278 50.6643L44.0565 46.993L42.0984 48.951L47.7278 54.5804L57.3957 44.9126L59.1089 46.6258L47.7278 58.007Z" fill="inherit"/>
<path d="M70.8001 21.718L65.7812 26.7371L67.5119 28.4678L72.5307 23.4487L70.8001 21.718Z" fill="inherit"/>
<path d="M57.0479 15.9435L54.9336 22.7192L57.27 23.4484L59.3843 16.6727L57.0479 15.9435Z" fill="inherit"/>
</svg>
