<svg width="34" height="34" viewBox="0 0 34 34" fill="none" xmlns="http://www.w3.org/2000/svg">
<path d="M2.07926 25.6154H1V26.7342H2.07926V25.6154Z" fill="inherit" stroke="inherit" stroke-width="0.3"/>
<path d="M2.07926 23.3777H1V24.4966H2.07926V23.3777Z" fill="inherit" stroke="inherit" stroke-width="0.3"/>
<path d="M2.07926 21.1399H1V22.2588H2.07926V21.1399Z" fill="inherit" stroke="inherit" stroke-width="0.3"/>
<path d="M2.07926 18.9021H1V20.021H2.07926V18.9021Z" fill="inherit" stroke="inherit" stroke-width="0.3"/>
<path d="M2.07926 16.6643H1V17.7832H2.07926V16.6643Z" fill="inherit" stroke="inherit" stroke-width="0.3"/>
<path d="M2.07926 14.4265H1V15.5454H2.07926V14.4265Z" fill="inherit" stroke="inherit" stroke-width="0.3"/>
<path d="M2.07926 12.1888H1V13.3077H2.07926V12.1888Z" fill="inherit" stroke="inherit" stroke-width="0.3"/>
<path d="M2.07926 9.95105H1V11.0699H2.07926V9.95105Z" fill="inherit" stroke="inherit" stroke-width="0.3"/>
<path d="M2.07926 7.71338H1V8.83226H2.07926V7.71338Z" fill="inherit" stroke="inherit" stroke-width="0.3"/>
<path d="M2.07926 5.47559H1V6.59447H2.07926V5.47559Z" fill="inherit" stroke="inherit" stroke-width="0.3"/>
<path d="M2.07926 3.23779H1V4.35667H2.07926V3.23779Z" fill="inherit" stroke="inherit" stroke-width="0.3"/>
<path d="M2.07926 1H1V2.11888H2.07926V1Z" fill="inherit" stroke="inherit" stroke-width="0.3"/>
<path d="M4.23893 1H3.15967V2.11888H4.23893V1Z" fill="inherit" stroke="inherit" stroke-width="0.3"/>
<path d="M6.39884 1H5.31958V2.11888H6.39884V1Z" fill="inherit" stroke="inherit" stroke-width="0.3"/>
<path d="M8.55826 1H7.479V2.11888H8.55826V1Z" fill="inherit" stroke="inherit" stroke-width="0.3"/>
<path d="M10.7179 1H9.63867V2.11888H10.7179V1Z" fill="inherit" stroke="inherit" stroke-width="0.3"/>
<path d="M12.8776 1H11.7983V2.11888H12.8776V1Z" fill="inherit" stroke="inherit" stroke-width="0.3"/>
<path d="M15.0375 1H13.9583V2.11888H15.0375V1Z" fill="inherit" stroke="inherit" stroke-width="0.3"/>
<path d="M17.1972 1H16.1179V2.11888H17.1972V1Z" fill="inherit" stroke="inherit" stroke-width="0.3"/>
<path d="M19.3568 1H18.2776V2.11888H19.3568V1Z" fill="inherit" stroke="inherit" stroke-width="0.3"/>
<path d="M9.63908 12.1888C8.12729 12.1888 6.93945 11.014 6.93945 9.50347V8.10487C6.93945 6.65032 8.12729 5.41956 9.63908 5.41956C11.1509 5.41956 12.3387 6.59438 12.3387 8.10487V9.50347C12.3387 11.014 11.1509 12.1888 9.63908 12.1888ZM9.63908 6.59438C8.72121 6.59438 8.0193 7.26571 8.0193 8.16081V9.55942C8.0193 10.3986 8.72121 11.1258 9.63908 11.1258C10.557 11.1258 11.2589 10.4545 11.2589 9.55942V8.16081C11.2589 7.26571 10.557 6.59438 9.63908 6.59438Z" fill="inherit" stroke="inherit" stroke-width="0.3"/>
<path d="M13.4183 17.2238H12.3385C12.3385 15.6574 11.1506 14.4266 9.63886 14.4266C8.12706 14.4266 6.93923 15.6574 6.93923 17.2238H5.85938C5.85938 15.042 7.53315 13.3077 9.63886 13.3077C11.7446 13.3077 13.4183 15.042 13.4183 17.2238Z" fill="inherit" stroke="inherit" stroke-width="0.3"/>
<path d="M15.038 28.9721H4.23952C3.6456 28.9721 3.15967 28.4686 3.15967 27.8532V4.35667C3.15967 3.74129 3.6456 3.23779 4.23952 3.23779H23.6769C24.2708 3.23779 24.7567 3.74129 24.7567 4.35667V13.8672H23.6769V4.35667H4.23952V27.8532H15.038V28.9721Z" fill="inherit" stroke="inherit" stroke-width="0.3"/>
<path d="M19.3575 7.15381H13.9583V8.27269H19.3575V7.15381Z" fill="inherit" stroke="inherit" stroke-width="0.3"/>
<path d="M20.4374 9.3916H13.9583V10.5105H20.4374V9.3916Z" fill="inherit" stroke="inherit" stroke-width="0.3"/>
<path d="M22.5963 9.3916H21.5171V10.5105H22.5963V9.3916Z" fill="inherit" stroke="inherit" stroke-width="0.3"/>
<path d="M13.9585 19.4615H6.93945V20.5804H13.9585V19.4615Z" fill="inherit" stroke="inherit" stroke-width="0.3"/>
<path d="M10.7189 21.6993H6.93945V22.8182H10.7189V21.6993Z" fill="inherit" stroke="inherit" stroke-width="0.3"/>
<path d="M12.8776 21.6993H11.7983V22.8182H12.8776V21.6993Z" fill="inherit" stroke="inherit" stroke-width="0.3"/>
<path d="M22.597 30.6503C18.4396 30.6503 15.0381 27.1258 15.0381 22.8181C15.0381 18.5104 18.4396 14.986 22.597 14.986C26.7545 14.986 30.156 18.5104 30.156 22.8181C30.156 23.7132 30.048 24.3286 29.8321 25.1118L28.8062 24.7762C29.0222 24.1608 29.0762 23.6013 29.0762 22.8741C29.0762 19.1818 26.1606 16.1608 22.597 16.1608C19.0335 16.1608 16.1179 19.1818 16.1179 22.8741C16.1179 26.5664 19.0335 29.5874 22.597 29.5874C24.2168 29.5874 25.7826 28.972 26.9704 27.7972L27.7263 28.6363C26.3225 29.923 24.4868 30.6503 22.597 30.6503Z" fill="inherit" stroke="#inherit" stroke-width="0.3"/>
<path d="M28.6979 27.4615L27.8345 26.7901C27.9964 26.5664 28.1582 26.2866 28.3201 26.0629L29.2915 26.6223C29.0756 26.902 28.8598 27.1817 28.6979 27.4615Z" fill="inherit" stroke="#inherit" stroke-width="0.3"/>
<path d="M25.5665 33L25.2427 31.9371C25.6204 31.8252 25.7283 31.7693 26.1061 31.6014L26.5378 32.6084C26.1061 32.8322 25.9442 32.8882 25.5665 33Z" fill="inherit" stroke="inherit" stroke-width="0.3"/>
<path d="M27.8344 31.9371L27.2944 30.9861C30.0481 29.2518 31.7758 26.1189 31.7758 22.8182H32.8557C32.8557 26.5105 30.9659 30.035 27.8344 31.9371Z" fill="inherit" stroke="inherit" stroke-width="0.3"/>
<path d="M24.6355 19.9054L24.063 20.4987L24.8264 21.2896L25.3989 20.6964L24.6355 19.9054Z" fill="inherit" stroke="inherit" stroke-width="0.3"/>
<path d="M22.057 27.5175L18.0615 23.3777L20.4372 20.9161L22.057 22.5945L23.0828 21.5315L23.8387 22.3147L22.057 24.1609L20.4372 22.4826L19.5733 23.3777L22.057 25.9511L26.3224 21.5315L27.0783 22.3147L22.057 27.5175Z" fill="inherit" stroke="inherit" stroke-width="0.3"/>
<path d="M32.2357 10.9289L30.022 13.2227L30.7853 14.0136L32.9991 11.7198L32.2357 10.9289Z" fill="inherit" stroke="inherit" stroke-width="0.3"/>
<path d="M26.1692 8.28869L25.2363 11.386L26.2666 11.7191L27.1995 8.62183L26.1692 8.28869Z" fill="inherit" stroke="inherit" stroke-width="0.3"/>
</svg>
